{
	"function": {
		"123arcd0c5a53DefineAuthChallenge": {
			"service": "Lambda",
			"providerPlugin": "awscloudformation",
			"build": true
		},
		"123arcd0c5a53CreateAuthChallenge": {
			"service": "Lambda",
			"providerPlugin": "awscloudformation",
			"build": true
		},
		"123are77af25aCustomMessage": {
			"service": "Lambda",
			"providerPlugin": "awscloudformation",
			"build": true
		},
		"123are77af25aPostConfirmation": {
			"service": "Lambda",
			"providerPlugin": "awscloudformation",
			"build": true
		}
	},
	"auth": {
		"123are77af25a": {
			"service": "Cognito",
			"providerPlugin": "awscloudformation",
			"dependsOn": [
				{
					"category": "function",
					"resourceName": "123are77af25aCustomMessage",
					"triggerProvider": "Cognito",
					"attributes": [
						"Arn",
						"Name"
					]
				},
				{
					"category": "function",
					"resourceName": "123are77af25aPostConfirmation",
					"triggerProvider": "Cognito",
					"attributes": [
						"Arn",
						"Name"
					]
				}
			]
		}
	},
	"api": {}
}